<svg xmlns="http://www.w3.org/2000/svg" class="icon icon-tabler icon-tabler-rss" width="48" height="48" viewBox="0 0 24 24" stroke-width="1.5" stroke="#2c3e50" fill="none" stroke-linecap="round" stroke-linejoin="round">
  <path stroke="none" d="M0 0h24v24H0z" fill="none"/>
  <circle cx="5" cy="19" r="1" />
  <path d="M4 4a16 16 0 0 1 16 16" />
  <path d="M4 11a9 9 0 0 1 9 9" />
</svg>
